Workflow • curveRmetrics
…
Limits of Detection

First the raw confidence/credible intervals and parameters are
transformed to natural units and combined together in one dataset for
comparison.

bayes_param_ci_nat <- transform_ci_to_natural_units(bayes_param_ci_df)
freq_param_ci_nat <- transform_ci_to_natural_units(freq_param_ci_df)

params_ci_nat <- rbind(freq_param_ci_nat, bayes_param_ci_nat)
params_ci_nat
#> # A tibble: 102 × 12
#>    curve_id method model_name converged parameter estimate conf_lower conf_upper
#>     <int64> <chr>  <chr>      <lgl>     <chr>        <dbl>      <dbl>      <dbl>
#>  1    74233 frequ… logistic4  TRUE      AIC        -46.9      -46.9     -46.9   
#>  2    74233 frequ… logistic4  TRUE      a           -1.31      -1.37     -1.25  
#>  3    74233 frequ… logistic4  TRUE      b            0.288      0.235     0.341 
#>  4    74233 frequ… logistic4  TRUE      c            1.89       1.83      1.95  
#>  5    74233 frequ… logistic4  TRUE      d            0.528      0.469     0.588 
#>  6    74234 frequ… logistic5  TRUE      AIC        -67.1      -67.1     -67.1   
#>  7    74234 frequ… logistic5  TRUE      a           -1.47      -1.50     -1.45  
#>  8    74234 frequ… logistic5  TRUE      b            0.156     -0.138     0.449 
#>  9    74234 frequ… logistic5  TRUE      c            2.56       1.93      3.19  
#> 10    74234 frequ… logistic5  TRUE      d           -0.558     -1.18      0.0663
#> # ℹ 92 more rows
#> # ℹ 4 more variables: is_best_model <lgl>, estimate_nat <dbl>,
#> #   conf_lower_nat <dbl>, conf_upper_nat <dbl>
…
