…
## Limits of Detection

First the raw confidence/credible intervals and parameters are
transformed to natural units and combined together in one dataset for
comparison.

``` r
bayes_param_ci_nat <- transform_ci_to_natural_units(bayes_param_ci_df)
freq_param_ci_nat <- transform_ci_to_natural_units(freq_param_ci_df)

params_ci_nat <- rbind(freq_param_ci_nat, bayes_param_ci_nat)
params_ci_nat
#> # A tibble: 77 × 10
#>    curve_id method      model_name parameter estimate conf_lower conf_upper
#>     <int64> <chr>       <chr>      <chr>        <dbl>      <dbl>      <dbl>
#>  1    74233 frequentist logistic4  AIC        -46.9      -46.9     -46.9   
#>  2    74233 frequentist logistic4  a           -1.31      -1.37     -1.25  
#>  3    74233 frequentist logistic4  b            0.288      0.235     0.341 
#>  4    74233 frequentist logistic4  c            1.89       1.83      1.95  
#>  5    74233 frequentist logistic4  d            0.528      0.469     0.588 
#>  6    74234 frequentist logistic5  AIC        -67.1      -67.1     -67.1   
#>  7    74234 frequentist logistic5  a           -1.47      -1.50     -1.45  
#>  8    74234 frequentist logistic5  b            0.156     -0.138     0.449 
#>  9    74234 frequentist logistic5  c            2.56       1.93      3.19  
#> 10    74234 frequentist logistic5  d           -0.558     -1.18      0.0663
#> # ℹ 67 more rows
#> # ℹ 3 more variables: estimate_nat <dbl>, conf_lower_nat <dbl>,
#> #   conf_upper_nat <dbl>
```
…
